"patient_id","fac_prof","record_identifier","age","sex","svc_date","end_date","los","proc_code","proc_code_type","icd_proc1","icd_proc2-50","icd_flag","dx1","dx2","dx3","dx4","dx5","rev_code","std_place","std_prov","prov_id","chg","pay","net_pay","claim_id","rec_type","rvu","exc_flag","admit_source","admit_type","discharge","facility_id_std","rb_indicator","drg","paid_ntwk","mdc_cd","claim_type_cd","pre_adm","adm_day","dis_day","post_day","ed_obs_flag"
"1","P","1802505960","56","M",12/22/2013 0:00:00,12/24/2013 0:00:00,2.00,"A4216","7",,,"9","6827",,,,,,"12","38",,46.86,46.86,46.86,"212297","O",,"N",,,,,,,"1","9","1",,,,,
"1","P","1802505966","56","M",12/22/2013 0:00:00,12/24/2013 0:00:00,2.00,"S9500","7",,,"9","6827",,,,,,"12","38",,213.00,213.00,213.00,"212297","O",,"N",,,,,,,"1","9","1",,,,,
"1","P","1802505965","56","M",12/22/2013 0:00:00,12/24/2013 0:00:00,2.00,"J3370","7",,,"9","6827",,,,,,"12","38",,36.92,36.92,36.92,"212297","O",,"N",,,,,,,"1","9","1",,,,,
"1","F","1802505996","56","M",12/30/2013 0:00:00,12/30/2013 0:00:00,0.00,"99601","1",,,"9","25000","68110",,,,"0551","12","920",,303.88,303.88,303.88,"18415","O",,"N",,,,,,,"1","10","1",,,,,
"2","P","1802505967","56","M",12/22/2013 0:00:00,12/24/2013 0:00:00,2.00,"S9502","7",,,"9","6827",,,,,,"12","38",,426.00,426.00,426.00,"212297","O",,"N",,,,,,,"1","9","1",,,,,
"2","P","1802505964","56","M",12/22/2013 0:00:00,12/24/2013 0:00:00,2.00,"J3370","7",,,"9","6827",,,,,,"12","38",,22.15,22.15,22.15,"212297","O",,"N",,,,,,,"1","9","1",,,,,
"2","P","1802505999","56","M",12/30/2013 0:00:00,12/30/2013 0:00:00,0.00,"85025","1",,,"9","68110","V5883",,,,,"81","820",,6.20,6.20,6.20,"212291","O",,"Y",,,,,,,"1","9","1",,,,,
"3","P","1802505961","56","M",12/22/2013 0:00:00,12/24/2013 0:00:00,2.00,"A4305","7",,,"9","6827",,,,,,"12","38",,178.92,178.92,178.92,"212297","O",,"N",,,,,,,"1","9","1",,,,,
"3","P","1802505963","56","M",12/22/2013 0:00:00,12/24/2013 0:00:00,2.00,"J1642","7",,,"9","6827",,,,,,"12","38",,575.10,575.10,575.10,"212297","O",,"N",,,,,,,"1","9","1",,,,,
"4","P","1802505962","56","M",12/22/2013 0:00:00,12/24/2013 0:00:00,2.00,"J0696","7",,,"9","6827",,,,,,"12","38",,67.13,67.13,67.13,"212297","O",,"N",,,,,,,"1","9","1",,,,,
"4","F","1802958179","38","F",12/23/2013 0:00:00,12/23/2013 0:00:00,0.00,,,,,"9","64883","V6549",,,,"0942","22","1",,944.00,944.00,944.00,"134556","O",,"N",,,,,,,"1","14","1",,,,,
"10","P","1802505972","56","M",12/23/2013 0:00:00,12/23/2013 0:00:00,0.00,"85025","1",,,"9","68110","V5883",,,,,"81","820",,6.20,6.20,6.20,"212326","O",,"Y",,,,,,,"1","9","1",,,,,
"10","P","1802505973","56","M",12/23/2013 0:00:00,12/23/2013 0:00:00,0.00,"85652","1",,,"9","68110","V5883",,,,,"81","820",,2.15,2.15,2.15,"212326","O",,"Y",,,,,,,"1","9","1",,,,,
"10","P","1802505971","56","M",12/23/2013 0:00:00,12/23/2013 0:00:00,0.00,"80202","1",,,"9","68110","V5883",,,,,"81","820",,10.80,10.80,10.80,"212326","O",,"Y",,,,,,,"1","9","1",,,,,
"11","P","1802505970","56","M",12/23/2013 0:00:00,12/23/2013 0:00:00,0.00,"80053","1",,,"9","68110","V5883",,,,,"81","820",,8.43,8.43,8.43,"212326","O",,"Y",,,,,,,"1","9","1",,,,,
"11","F","1802505969","56","M",12/23/2013 0:00:00,12/23/2013 0:00:00,0.00,"G0154","7",,,"9","25000","68110",,,,"0551","12","920",,181.19,181.19,181.19,"18414","O",,"N",,,,,,,"1","10","1",,,,,
"11","P","1802505975","56","M",12/25/2013 0:00:00,12/27/2013 0:00:00,2.00,"J0696","7",,,"9","6827",,,,,,"12","38",,67.13,67.13,67.13,"212297","O",,"N",,,,,,,"1","9","1",,,,,
"11","P","1802505976","56","M",12/25/2013 0:00:00,12/27/2013 0:00:00,2.00,"J3370","7",,,"9","6827",,,,,,"12","38",,22.15,22.15,22.15,"212297","O",,"N",,,,,,,"1","9","1",,,,,
"15","P","1802505977","56","M",12/25/2013 0:00:00,12/27/2013 0:00:00,2.00,"J3370","7",,,"9","6827",,,,,,"12","38",,36.92,36.92,36.92,"212297","O",,"N",,,,,,,"1","9","1",,,,,
"15","P","1802505978","56","M",12/25/2013 0:00:00,12/27/2013 0:00:00,2.00,"S9500","7",,,"9","6827",,,,,,"12","38",,213.00,213.00,213.00,"212297","O",,"N",,,,,,,"1","9","1",,,,,
"15","P","1802505979","56","M",12/25/2013 0:00:00,12/27/2013 0:00:00,2.00,"S9502","7",,,"9","6827",,,,,,"12","38",,426.00,426.00,426.00,"212297","O",,"N",,,,,,,"1","9","1",,,,,
"15","P","1802505974","56","M",12/25/2013 0:00:00,12/27/2013 0:00:00,2.00,"A4305","7",,,"9","6827",,,,,,"12","38",,159.04,159.04,159.04,"212297","O",,"N",,,,,,,"1","9","1",,,,,
"16","P","1802505981","56","M",12/26/2013 0:00:00,12/26/2013 0:00:00,0.00,"80053","1",,,"9","68110","V5883",,,,,"81","820",,8.43,8.43,8.43,"212288","O",,"Y",,,,,,,"1","9","1",,,,,
"16","P","1802505985","56","M",12/26/2013 0:00:00,12/26/2013 0:00:00,0.00,"73610","1",,,"9","V6709",,,,,,"11","130",,30.28,30.28,30.28,"212332","O",,"Y",,,,,,,"1","23","1",,,,,
"16","P","1802505986","56","M",12/26/2013 0:00:00,12/26/2013 0:00:00,0.00,"73620","1",,,"9","V6709",,,,,,"11","130",,24.96,24.96,24.96,"212332","O",,"Y",,,,,,,"1","23","1",,,,,
"19","P","1802505984","56","M",12/26/2013 0:00:00,12/26/2013 0:00:00,0.00,"85652","1",,,"9","68110","V5883",,,,,"81","820",,2.15,2.15,2.15,"212288","O",,"Y",,,,,,,"1","9","1",,,,,
"19","P","1802505983","56","M",12/26/2013 0:00:00,12/26/2013 0:00:00,0.00,"85025","1",,,"9","68110","V5883",,,,,"81","820",,6.20,6.20,6.20,"212288","O",,"Y",,,,,,,"1","9","1",,,,,
"19","P","1802505982","56","M",12/26/2013 0:00:00,12/26/2013 0:00:00,0.00,"80202","1",,,"9","68110","V5883",,,,,"81","820",,10.80,10.80,10.80,"212288","O",,"Y",,,,,,,"1","9","1",,,,,
"19","F","1802505980","56","M",12/26/2013 0:00:00,12/26/2013 0:00:00,0.00,"99601","1",,,"9","25000","68110",,,,"0551","12","920",,303.88,303.88,303.88,"18414","O",,"N",,,,,,,"1","10","1",,,,,
"19","P","1802505991","56","M",12/28/2013 0:00:00,12/31/2013 0:00:00,3.00,"J1642","7",,,"9","6827",,,,,,"12","38",,0.76,0.76,0.76,"212312","O",,"N",,,,,,,"1","9","1",,,,,
"19","P","1802505995","56","M",12/28/2013 0:00:00,12/31/2013 0:00:00,3.00,"S9502","7",,,"9","6827",,,,,,"12","38",,568.00,568.00,568.00,"212312","O",,"N",,,,,,,"1","9","1",,,,,
"19","P","1802505994","56","M",12/28/2013 0:00:00,12/31/2013 0:00:00,3.00,"S9500","7",,,"9","6827",,,,,,"12","38",,284.00,284.00,284.00,"212312","O",,"N",,,,,,,"1","9","1",,,,,
"19","P","1802505992","56","M",12/28/2013 0:00:00,12/31/2013 0:00:00,3.00,"J3370","7",,,"9","6827",,,,,,"12","38",,14.76,14.76,14.76,"212312","O",,"N",,,,,,,"1","9","1",,,,,
"19","P","1802505990","56","M",12/28/2013 0:00:00,12/31/2013 0:00:00,3.00,"J1642","7",,,"9","6827",,,,,,"12","38",,766.03,766.03,766.03,"212312","O",,"N",,,,,,,"1","9","1",,,,,
"19","P","1802505989","56","M",12/28/2013 0:00:00,12/31/2013 0:00:00,3.00,"J0696","7",,,"9","6827",,,,,,"12","38",,89.51,89.51,89.51,"212312","O",,"N",,,,,,,"1","9","1",,,,,
"19","P","1802505988","56","M",12/28/2013 0:00:00,12/31/2013 0:00:00,3.00,"A4305","7",,,"9","6827",,,,,,"12","38",,238.56,238.56,238.56,"212312","O",,"N",,,,,,,"1","9","1",,,,,
"19","P","1802505987","56","M",12/28/2013 0:00:00,12/31/2013 0:00:00,3.00,"A4216","7",,,"9","6827",,,,,,"12","38",,62.48,62.48,62.48,"212312","O",,"N",,,,,,,"1","9","1",,,,,
"19","P","1802505993","56","M",12/28/2013 0:00:00,12/31/2013 0:00:00,3.00,"J3370","7",,,"9","6827",,,,,,"12","38",,73.84,73.84,73.84,"212312","O",,"N",,,,,,,"1","9","1",,,,,
"19","P","1802506000","56","M",12/30/2013 0:00:00,12/30/2013 0:00:00,0.00,"85652","1",,,"9","68110","V5883",,,,,"81","820",,2.15,2.15,2.15,"212291","O",,"Y",,,,,,,"1","9","1",,,,,
"19","P","1802505997","56","M",12/30/2013 0:00:00,12/30/2013 0:00:00,0.00,"80053","1",,,"9","68110","V5883",,,,,"81","820",,8.43,8.43,8.43,"212291","O",,"Y",,,,,,,"1","9","1",,,,,
"19","P","1802505998","56","M",12/30/2013 0:00:00,12/30/2013 0:00:00,0.00,"80202","1",,,"9","68110","V5883",,,,,"81","820",,10.80,10.80,10.80,"212291","O",,"Y",,,,,,,"1","9","1",,,,,
